\relax 
\pgfsyspdfmark {pgfid1}{4736286}{50644704}
\pgfsyspdfmark {pgfid2}{4736286}{50644704}
\@input{Texs/Intro.aux}
\pgfsyspdfmark {pgfid3}{4736286}{50644704}
\@input{Texs/ty1.aux}
\pgfsyspdfmark {pgfid4}{4736286}{50644704}
\@input{Texs/we.aux}
\pgfsyspdfmark {pgfid5}{4736286}{50644704}
\pgfsyspdfmark {pgfid6}{4736286}{50644704}
\@input{Texs/document.aux}
\pgfsyspdfmark {pgfid7}{4736286}{50644704}
\@input{Texs/CS1.aux}
\pgfsyspdfmark {pgfid8}{4736286}{50644704}
\@input{Texs/CS2.aux}
\pgfsyspdfmark {pgfid9}{4736286}{50644704}
\@input{Texs/ty2.aux}
\pgfsyspdfmark {pgfid10}{4736286}{50644704}
\@input{Texs/sd.aux}
\pgfsyspdfmark {pgfid11}{4736286}{50644704}
\@input{Texs/sd2.aux}
\pgfsyspdfmark {pgfid12}{4736286}{50644704}
\@input{Texs/sd3.aux}
\pgfsyspdfmark {pgfid13}{4736286}{50644704}
\@input{Texs/data.aux}
\pgfsyspdfmark {pgfid14}{4736286}{50644704}
\@input{Texs/data2.aux}
\pgfsyspdfmark {pgfid15}{4736286}{50644704}
\@input{Texs/credit.aux}
\pgfsyspdfmark {pgfid16}{4736286}{50644704}
\@input{Texs/cr.aux}
\pgfsyspdfmark {pgfid17}{4736286}{50644704}
\pgfsyspdfmark {pgfid18}{4736286}{50644704}
